%YAML 1.1
%TAG !u! tag:unity3d.com,2011:
--- !u!114 &11400000
MonoBehaviour:
  m_ObjectHideFlags: 0
  m_CorrespondingSourceObject: {fileID: 0}
  m_PrefabInstance: {fileID: 0}
  m_PrefabAsset: {fileID: 0}
  m_GameObject: {fileID: 0}
  m_Enabled: 1
  m_EditorHideFlags: 0
  m_Script: {fileID: 11500000, guid: 530e556d4407947dcae7102ff497587d, type: 3}
  m_Name: FSM
  m_EditorClassIdentifier: 
  _data:
    _json: '{"graph":{"title":null,"summary":null,"pan":{"x":-509.8154,"y":2.0},"zoom":1.0,"elements":[{"nest":{"source":"Embed","macro":null,"embed":{"variables":{"Kind":"Flow","collection":{"$content":[],"$version":"A"},"$version":"A"},"controlInputDefinitions":[],"controlOutputDefinitions":[],"valueInputDefinitions":[],"valueOutputDefinitions":[],"title":"Start","summary":null,"pan":{"x":-136.5,"y":4.0},"zoom":1.0,"elements":[{"coroutine":false,"defaultValues":{},"position":{"x":-241.0,"y":-162.0},"guid":"a7f88413-f32c-498d-9993-be5c4a475864","$version":"A","$type":"Unity.VisualScripting.OnEnterState","$id":"13"},{"coroutine":false,"defaultValues":{},"position":{"x":-245.0,"y":-15.0},"guid":"c8c43c58-3478-413a-85b0-96814624d940","$version":"A","$type":"Unity.VisualScripting.Update"},{"coroutine":false,"defaultValues":{},"position":{"x":-255.0,"y":149.0},"guid":"a4c49632-c5d3-4643-8638-26f6f20e1ec6","$version":"A","$type":"Unity.VisualScripting.OnExitState"},{"argumentCount":0,"defaultValues":{"name":{"$content":"GotoIdleState","$type":"System.String"},"target":null},"position":{"x":27.0,"y":-94.0},"guid":"c1e24185-70bb-4213-9017-91c2eb3a8e19","$version":"A","$type":"Unity.VisualScripting.TriggerCustomEvent","$id":"19"},{"sourceUnit":{"$ref":"13"},"sourceKey":"trigger","destinationUnit":{"$ref":"19"},"destinationKey":"enter","guid":"e0b322a5-7e27-4d9e-9ebd-12cdf021451c","$type":"Unity.VisualScripting.ControlConnection"}],"$version":"A"}},"isStart":true,"position":{"x":-181.0,"y":53.0},"width":170.0,"guid":"68f137d8-7532-4bad-ada3-257a626cccd1","$version":"A","$type":"Unity.VisualScripting.FlowState","$id":"3"},{"nest":{"source":"Embed","macro":null,"embed":{"variables":{"Kind":"Flow","collection":{"$content":[{"name":"m_IdleTime","value":{"$content":0.0,"$type":"System.Single"},"typeHandle":{"Identification":"System.Single,
      mscorlib, Version=4.0.0.0, Culture=neutral, PublicKeyToken=b77a5c561934e089","$version":"A"},"$version":"A"}],"$version":"A"},"$version":"A"},"controlInputDefinitions":[],"controlOutputDefinitions":[],"valueInputDefinitions":[],"valueOutputDefinitions":[],"title":"Idle","summary":null,"pan":{"x":-125.0,"y":19.0},"zoom":1.0,"elements":[{"coroutine":false,"defaultValues":{},"position":{"x":-204.0,"y":-185.0},"guid":"d14b0c6c-8396-4939-b15e-0637fa003293","$version":"A","$type":"Unity.VisualScripting.OnEnterState","$id":"33"},{"coroutine":false,"defaultValues":{},"position":{"x":-161.0,"y":-38.0},"guid":"51eb2a95-ae1a-45fc-ab4b-45a76a8dbab1","$version":"A","$type":"Unity.VisualScripting.Update","$id":"35"},{"coroutine":false,"defaultValues":{},"position":{"x":-205.0,"y":145.0},"guid":"997455bf-4a9a-4c84-a59d-5b23537b84d5","$version":"A","$type":"Unity.VisualScripting.OnExitState","$id":"37"},{"chainable":false,"parameterNames":[],"member":{"name":"EnterState","parameterTypes":[],"targetType":"Nopparat.GameDev3.Chapter12.SimpleWaypointAIFSM.IdleState","targetTypeName":"Nopparat.GameDev3.Chapter12.SimpleWaypointAIFSM.IdleState","$version":"A"},"defaultValues":{"target":null},"position":{"x":17.0,"y":-175.0},"guid":"f526c0eb-0405-4af3-b7bd-516743d94501","$version":"A","$type":"Unity.VisualScripting.InvokeMember","$id":"39"},{"chainable":false,"parameterNames":[],"member":{"name":"UpdateState","parameterTypes":[],"targetType":"Nopparat.GameDev3.Chapter12.SimpleWaypointAIFSM.IdleState","targetTypeName":"Nopparat.GameDev3.Chapter12.SimpleWaypointAIFSM.IdleState","$version":"A"},"defaultValues":{"target":null},"position":{"x":8.0,"y":-18.0},"guid":"0206c4a4-232b-426e-be4b-478871c0d955","$version":"A","$type":"Unity.VisualScripting.InvokeMember","$id":"43"},{"chainable":false,"parameterNames":[],"member":{"name":"ExitState","parameterTypes":[],"targetType":"Nopparat.GameDev3.Chapter12.SimpleWaypointAIFSM.IdleState","targetTypeName":"Nopparat.GameDev3.Chapter12.SimpleWaypointAIFSM.IdleState","$version":"A"},"defaultValues":{"target":null},"position":{"x":64.0,"y":147.0},"guid":"d063447c-c934-4e2c-9873-05c195f72699","$version":"A","$type":"Unity.VisualScripting.InvokeMember","$id":"47"},{"sourceUnit":{"$ref":"33"},"sourceKey":"trigger","destinationUnit":{"$ref":"39"},"destinationKey":"enter","guid":"ccf25b1d-9ae6-453a-953b-8aa886b903ed","$type":"Unity.VisualScripting.ControlConnection"},{"sourceUnit":{"$ref":"35"},"sourceKey":"trigger","destinationUnit":{"$ref":"43"},"destinationKey":"enter","guid":"bf56ba07-7dd4-4661-886b-f2792befa103","$type":"Unity.VisualScripting.ControlConnection"},{"sourceUnit":{"$ref":"37"},"sourceKey":"trigger","destinationUnit":{"$ref":"47"},"destinationKey":"enter","guid":"f33be5b1-6fde-4f9b-930d-28a52d157e90","$type":"Unity.VisualScripting.ControlConnection"}],"$version":"A"}},"isStart":false,"position":{"x":55.0,"y":-176.0},"width":170.0,"guid":"6f167d61-8bd5-4fcb-a7c4-87b19751cdde","$version":"A","$type":"Unity.VisualScripting.FlowState","$id":"22"},{"nest":{"source":"Embed","macro":null,"embed":{"variables":{"Kind":"Flow","collection":{"$content":[],"$version":"A"},"$version":"A"},"controlInputDefinitions":[],"controlOutputDefinitions":[],"valueInputDefinitions":[],"valueOutputDefinitions":[],"title":"WaypointReaching","summary":null,"pan":{"x":99.0,"y":22.0},"zoom":1.0,"elements":[{"coroutine":false,"defaultValues":{},"position":{"x":-205.0,"y":-215.0},"guid":"ddab4a97-caff-4b77-b680-02e4c078040d","$version":"A","$type":"Unity.VisualScripting.OnEnterState","$id":"64"},{"coroutine":false,"defaultValues":{},"position":{"x":-161.0,"y":-38.0},"guid":"560cfa36-6b39-4614-95d9-41a97d11e939","$version":"A","$type":"Unity.VisualScripting.Update","$id":"66"},{"coroutine":false,"defaultValues":{},"position":{"x":-205.0,"y":145.0},"guid":"9bd8971b-6f6b-44e0-b6e6-ef066d8e8b29","$version":"A","$type":"Unity.VisualScripting.OnExitState","$id":"68"},{"chainable":false,"parameterNames":[],"member":{"name":"EnterState","parameterTypes":[],"targetType":"Nopparat.GameDev3.Chapter12.SimpleWaypointAIFSM.WaypointReachingState","targetTypeName":"Nopparat.GameDev3.Chapter12.SimpleWaypointAIFSM.WaypointReachingState","$version":"A"},"defaultValues":{"target":null},"position":{"x":0.0,"y":-174.0},"guid":"abd1c94f-ec64-4e6e-b21d-ef8e0d2a8182","$version":"A","$type":"Unity.VisualScripting.InvokeMember","$id":"70"},{"chainable":false,"parameterNames":[],"member":{"name":"UpdateState","parameterTypes":[],"targetType":"Nopparat.GameDev3.Chapter12.SimpleWaypointAIFSM.WaypointReachingState","targetTypeName":"Nopparat.GameDev3.Chapter12.SimpleWaypointAIFSM.WaypointReachingState","$version":"A"},"defaultValues":{"target":null},"position":{"x":28.0,"y":-4.0},"guid":"a6614e8a-ba3e-4a90-988e-f42a52ad6f4c","$version":"A","$type":"Unity.VisualScripting.InvokeMember","$id":"74"},{"chainable":false,"parameterNames":[],"member":{"name":"ExitState","parameterTypes":[],"targetType":"Nopparat.GameDev3.Chapter12.SimpleWaypointAIFSM.WaypointReachingState","targetTypeName":"Nopparat.GameDev3.Chapter12.SimpleWaypointAIFSM.WaypointReachingState","$version":"A"},"defaultValues":{"target":null},"position":{"x":74.0,"y":131.0},"guid":"92812d17-b36d-42f6-99bb-b8bd56a32331","$version":"A","$type":"Unity.VisualScripting.InvokeMember","$id":"78"},{"sourceUnit":{"$ref":"64"},"sourceKey":"trigger","destinationUnit":{"$ref":"70"},"destinationKey":"enter","guid":"31c3f9d7-b39f-4c13-83cc-5821cd3a9756","$type":"Unity.VisualScripting.ControlConnection"},{"sourceUnit":{"$ref":"66"},"sourceKey":"trigger","destinationUnit":{"$ref":"74"},"destinationKey":"enter","guid":"fc59eaf7-e8a7-4c10-aadf-025debe15045","$type":"Unity.VisualScripting.ControlConnection"},{"sourceUnit":{"$ref":"68"},"sourceKey":"trigger","destinationUnit":{"$ref":"78"},"destinationKey":"enter","guid":"9cbe7755-3c04-45dc-bec8-1d77f4464966","$type":"Unity.VisualScripting.ControlConnection"}],"$version":"A"}},"isStart":false,"position":{"x":213.0,"y":98.0},"width":170.0,"guid":"230e42b8-22e7-4f16-97be-bddbdb7f49ac","$version":"A","$type":"Unity.VisualScripting.FlowState","$id":"54"},{"nest":{"source":"Embed","macro":null,"embed":{"variables":{"Kind":"Flow","collection":{"$content":[],"$version":"A"},"$version":"A"},"controlInputDefinitions":[],"controlOutputDefinitions":[],"valueInputDefinitions":[],"valueOutputDefinitions":[],"title":null,"summary":null,"pan":{"x":0.0,"y":0.0},"zoom":1.0,"elements":[{"defaultValues":{},"position":{"x":100.0,"y":-50.0},"guid":"3b6af14e-1817-46f0-bd77-fa3b6694ca59","$version":"A","$type":"Unity.VisualScripting.TriggerStateTransition","$id":"95"},{"argumentCount":0,"coroutine":false,"defaultValues":{"target":null,"name":{"$content":"GotoIdleState","$type":"System.String"}},"position":{"x":-174.0,"y":-87.0},"guid":"fdcf52a9-a9aa-4b07-ad93-3d5a977f228b","$version":"A","$type":"Unity.VisualScripting.CustomEvent","$id":"97"},{"sourceUnit":{"$ref":"97"},"sourceKey":"trigger","destinationUnit":{"$ref":"95"},"destinationKey":"trigger","guid":"6418009c-2914-4cbb-abe4-27fd5961b311","$type":"Unity.VisualScripting.ControlConnection"}],"$version":"A"}},"source":{"$ref":"3"},"destination":{"$ref":"22"},"guid":"3aa14948-93e6-4cae-8d32-928f4a38582c","$version":"A","$type":"Unity.VisualScripting.FlowStateTransition"},{"nest":{"source":"Embed","macro":null,"embed":{"variables":{"Kind":"Flow","collection":{"$content":[],"$version":"A"},"$version":"A"},"controlInputDefinitions":[],"controlOutputDefinitions":[],"valueInputDefinitions":[],"valueOutputDefinitions":[],"title":null,"summary":null,"pan":{"x":0.0,"y":0.0},"zoom":1.0,"elements":[{"defaultValues":{},"position":{"x":100.0,"y":-50.0},"guid":"d73734fd-bf42-40ab-b11a-ab402ec9a742","$version":"A","$type":"Unity.VisualScripting.TriggerStateTransition","$id":"110"},{"argumentCount":0,"coroutine":false,"defaultValues":{"target":null,"name":{"$content":"GotoWaypointReachingState","$type":"System.String"}},"position":{"x":-250.0,"y":-106.0},"guid":"01d32d1f-b3b4-462a-8ed0-8f9c8cfc8c8c","$version":"A","$type":"Unity.VisualScripting.CustomEvent","$id":"112"},{"sourceUnit":{"$ref":"112"},"sourceKey":"trigger","destinationUnit":{"$ref":"110"},"destinationKey":"trigger","guid":"305431c0-7959-4436-ab9f-9dfdf323b706","$type":"Unity.VisualScripting.ControlConnection"}],"$version":"A"}},"source":{"$ref":"22"},"destination":{"$ref":"54"},"guid":"09bdad55-2d58-47fb-9f7b-b6b2173d59dd","$version":"A","$type":"Unity.VisualScripting.FlowStateTransition"},{"nest":{"source":"Embed","macro":null,"embed":{"variables":{"Kind":"Flow","collection":{"$content":[],"$version":"A"},"$version":"A"},"controlInputDefinitions":[],"controlOutputDefinitions":[],"valueInputDefinitions":[],"valueOutputDefinitions":[],"title":null,"summary":null,"pan":{"x":0.0,"y":0.0},"zoom":1.0,"elements":[{"defaultValues":{},"position":{"x":100.0,"y":-50.0},"guid":"29429065-346f-4f2c-b6ed-6605d4fca67f","$version":"A","$type":"Unity.VisualScripting.TriggerStateTransition","$id":"125"},{"argumentCount":0,"coroutine":false,"defaultValues":{"target":null,"name":{"$content":"GotoIdleState","$type":"System.String"}},"position":{"x":-160.0,"y":-83.0},"guid":"14d0a262-a40a-47d4-a2c5-758b03b16296","$version":"A","$type":"Unity.VisualScripting.CustomEvent","$id":"127"},{"sourceUnit":{"$ref":"127"},"sourceKey":"trigger","destinationUnit":{"$ref":"125"},"destinationKey":"trigger","guid":"591ac62f-a767-41e7-95fd-cb703121d44f","$type":"Unity.VisualScripting.ControlConnection"}],"$version":"A"}},"source":{"$ref":"54"},"destination":{"$ref":"22"},"guid":"43fb49ef-1816-4f1a-ba46-a944e222058a","$version":"A","$type":"Unity.VisualScripting.FlowStateTransition"}],"$version":"A"}}'
    _objectReferences: []
